Project 2: Data Mining, Classification, Prediction
…
library(tidyverse)

food_name <- read_csv("/stor/home/ncs866/project2/FOOD NAME.csv")
nutrient_amount <- read_csv("/stor/home/ncs866/project2/NUTRIENT AMOUNT.csv")
nutrient_name <- read_csv("/stor/home/ncs866/project2/NUTRIENT NAME.csv")
nutrient_source <- read_csv("/stor/home/ncs866/project2/NUTRIENT SOURCE.csv")

first_join <- inner_join(nutrient_source, nutrient_amount, by = "NutrientSourceID")
first_join

## # A tibble: 524,674 x 10
##    NutrientSourceID NutrientSourceC NutrientSourceD `NutrientSourc  FoodID
##               <dbl>            <dbl> <chr>            <chr>             <dbl>
##  1                0                0 No change from  "Provient int\x      5
##  2                0                0 No change from  "Provient int\x      5
##  3                0                0 No change from  "Provient int\x      5
##  4                0                0 No change from  "Provient int\x      5
##  5                0                0 No change from  "Provient int\x      5
##  6                0                0 No change from  "Provient int\x      5
##  7                0                0 No change from  "Provient int\x      5
##  8                0                0 No change from  "Provient int\x      5
##  9                0                0 No change from  "Provient int\x      5
## 10                0                0 No change from  "Provient int\x      5
## #  with 524,664 more rows, and 5 more variables: NutrientID <dbl>,
## #   NutrientValue <dbl>, StandardError <dbl>, NumberofObservations <dbl>,
## #   NutrientDateOfEntry <date>

food1 <- inner_join(first_join, nutrient_name, by = "NutrientID")
food1

## # A tibble: 524,673 x 17
##    NutrientSourceID NutrientSourceC NutrientSourceD `NutrientSourc  FoodID
##               <dbl>            <dbl> <chr>            <chr>             <dbl>
##  1                0                0 No change from  "Provient int\x      5
##  2                0                0 No change from  "Provient int\x      5
##  3                0                0 No change from  "Provient int\x      5
##  4                0                0 No change from  "Provient int\x      5
##  5                0                0 No change from  "Provient int\x      5
##  6                0                0 No change from  "Provient int\x      5
##  7                0                0 No change from  "Provient int\x      5
##  8                0                0 No change from  "Provient int\x      5
##  9                0                0 No change from  "Provient int\x      5
## 10                0                0 No change from  "Provient int\x      5
## #  with 524,663 more rows, and 12 more variables: NutrientID <dbl>,
## #   NutrientValue <dbl>, StandardError <dbl>, NumberofObservations <dbl>,
## #   NutrientDateOfEntry <date>, NutrientCode <dbl>, NutrientSymbol <chr>,
## #   NutrientUnit <chr>, NutrientName <chr>, NutrientNameF <chr>, Tagname <chr>,
## #   NutrientDecimals <dbl>

food <- left_join(food_name, food1, by = "FoodID")
food

## # A tibble: 524,673 x 21
##    FoodID FoodCode FoodGroupID FoodSourceID FoodDescription NutrientSourceID
##     <dbl>    <dbl>       <dbl>        <dbl> <chr>                      <dbl>
##  1      2        2          22           20 Cheese souffle                 2
##  2      2        2          22           20 Cheese souffle                 4
##  3      2        2          22           20 Cheese souffle                 4
##  4      2        2          22           20 Cheese souffle                 4
##  5      2        2          22           20 Cheese souffle                12
##  6      2        2          22           20 Cheese souffle                12
##  7      2        2          22           20 Cheese souffle                12
##  8      2        2          22           20 Cheese souffle                12
##  9      2        2          22           20 Cheese souffle                12
## 10      2        2          22           20 Cheese souffle                12
## #  with 524,663 more rows, and 15 more variables: NutrientSourceCode <dbl>,
## #   NutrientSourceDescription <chr>, `NutrientSourc DescriptionF` <chr>,
## #   NutrientID <dbl>, NutrientValue <dbl>, StandardError <dbl>,
## #   NumberofObservations <dbl>, NutrientDateOfEntry <date>, NutrientCode <dbl>,
## #   NutrientSymbol <chr>, NutrientUnit <chr>, NutrientName <chr>,
## #   NutrientNameF <chr>, Tagname <chr>, NutrientDecimals <dbl>

food <- food %>% select(-2, -3, -4, -6, -7, -9, -14, -16, -17, 
    -19, -20, -21)
food <- food %>% select(1, 2, 5, 9, everything())
food <- na.omit(food)
food

## # A tibble: 88,921 x 9
##    FoodID FoodDescription NutrientValue NutrientName NutrientSourceD NutrientID
##     <dbl> <chr>                   <dbl> <chr>        <chr>                 <dbl>
##  1      2 Cheese souffle         853    ENERGY (KIL Nutrient calcul        268
##  2      2 Cheese souffle           2.55 TOTAL NIACI Nutrient calcul        409
##  3      2 Cheese souffle           9.54 PROTEIN      Calculated usin        203
##  4      2 Cheese souffle          15.7  FAT (TOTAL  Calculated usin        204
##  5      2 Cheese souffle           5.91 CARBOHYDRAT Calculated usin        205
##  6      2 Cheese souffle           1.67 ASH, TOTAL   Calculated usin        207
##  7      2 Cheese souffle         204    ENERGY (KIL Calculated usin        208
##  8      2 Cheese souffle          67.2  MOISTURE     Calculated usin        255
##  9      2 Cheese souffle           0.1  FIBRE, TOTA Calculated usin        291
## 10      2 Cheese souffle         184    CALCIUM      Calculated usin        301
## #  with 88,911 more rows, and 3 more variables: StandardError <dbl>,
## #   NumberofObservations <dbl>, NutrientCode <dbl>

food %>% count(FoodDescription)

## # A tibble: 4,288 x 2
##    FoodDescription                                               n
##    <chr>                                                     <int>
##  1 Acerola (West Indian cherry), raw                             3
##  2 Acerola juice, raw                                            1
##  3 Alcohol, beer, light (4% alcohol by volume)                  25
##  4 Alcohol, beer, regular, (5% alcohol by volume)               36
##  5 Alcohol, cocktail, daiquiri (rum), homemade                   2
##  6 Alcohol, cocktail, pina colada (rum), homemade                2
##  7 Alcohol, cocktail, scotch and soda                           66
##  8 Alcohol, cocktail, whisky sour mix, bottled                   3
##  9 Alcohol, cocktail, whisky sour mix, bottled, whisky added     4
## 10 Alcohol, cocktail, whisky sour mix, powder                    1
## #  with 4,278 more rows
…
Python

library(reticulate)
use_python("/usr/bin/python3")
# py_install('matplotlib') py_install('numpy')
# py_install('pandas')

library(dplyr)
food1 <- food %>% select(-2)

food %>% arrange(desc(NutrientValue))

## # A tibble: 88,921 x 10
##    FoodID FoodDescription NutrientValue NutrientName NutrientSourceD NutrientID
##     <dbl> <chr>                   <dbl> <chr>        <chr>                 <dbl>
##  1   2258 Tomato product         28764 LYCOPENE     No change from         836
##  2 501801 Tomato product         28764 LYCOPENE     No change from         836
##  3    196 Spices, paprika         26162 BETA CAROTE No change from         321
##  4   2259 Tomato product         21754 LYCOPENE     No change from         836
##  5 501802 Tomato product         21754 LYCOPENE     No change from         836
##  6   3618 Veal, liver, b         21145 RETINOL ACT No change from         814
##  7   3618 Veal, liver, b         21140 RETINOL      No change from         319
##  8   3619 Veal, liver, p         20070 RETINOL      No change from         319
##  9    196 Spices, paprika         18944 LUTEIN AND  No change from         837
## 10   2105 Kale, boiled,          18246 LUTEIN AND  No change from         837
## #  with 88,911 more rows, and 4 more variables: StandardError <dbl>,
## #   NumberofObservations <dbl>, NutrientCode <dbl>, Source <dbl>

food %>% arrange(desc(NutrientValue)) %>% arrange(StandardError)

## # A tibble: 88,921 x 10
##    FoodID FoodDescription NutrientValue NutrientName NutrientSourceD NutrientID
##     <dbl> <chr>                   <dbl> <chr>        <chr>                 <dbl>
##  1   4085 Shake and bake          4030 SODIUM       Nutrient value         307
##  2   2962 Lemonade with           3722 ASPARTAME    Nutrient from t        550
##  3    523 Shortening, in          3697 ENERGY (KIL Nutrient impute        268
##  4    535 Animal fat, na          3697 ENERGY (KIL Nutrient derive        268
##  5    539 Shortening, ho          3697 ENERGY (KIL Nutrient impute        268
##  6    540 Shortening, in          3697 ENERGY (KIL Nutrient impute        268
##  7    541 Shortening, in          3697 ENERGY (KIL Nutrient impute        268
##  8    542 Shortening, in          3697 ENERGY (KIL Nutrient impute        268
##  9    543 Shortening, in          3697 ENERGY (KIL Nutrient impute        268
## 10    544 Shortening, in          3697 ENERGY (KIL Nutrient impute        268
## #  with 88,911 more rows, and 4 more variables: StandardError <dbl>,
## #   NumberofObservations <dbl>, NutrientCode <dbl>, Source <dbl>

food %>% filter(FoodID == 503355) %>% filter(NutrientValue == 
    0)

## # A tibble: 31 x 10
##    FoodID FoodDescription NutrientValue NutrientName NutrientSourceD NutrientID
##     <dbl> <chr>                   <dbl> <chr>        <chr>                 <dbl>
##  1 503355 Babyfood, cere             0 GALACTOSE    Nutrient analyz        287
##  2 503355 Babyfood, cere             0 FATTY ACIDS Nutrient analyz        608
##  3 503355 Babyfood, cere             0 FATTY ACIDS Nutrient analyz        621
##  4 503355 Babyfood, cere             0 FATTY ACIDS Nutrient analyz        625
##  5 503355 Babyfood, cere             0 FATTY ACIDS Nutrient analyz        627
##  6 503355 Babyfood, cere             0 FATTY ACIDS Nutrient analyz        629
##  7 503355 Babyfood, cere             0 FATTY ACIDS Nutrient analyz        631
##  8 503355 Babyfood, cere             0 FATTY ACIDS Nutrient analyz        652
##  9 503355 Babyfood, cere             0 FATTY ACIDS Nutrient analyz        653
## 10 503355 Babyfood, cere             0 FATTY ACIDS Nutrient analyz        654
## #  with 21 more rows, and 4 more variables: StandardError <dbl>,
## #   NumberofObservations <dbl>, NutrientCode <dbl>, Source <dbl>
…
